^D:\PROGRAM FILES\OPENFRAMEWORKS\ADDONS\OFXOPENCV\SRC\OFXCVCOLORIMAGE.CPP|D:\PROGRAM FILES\OPENFRAMEWORKS\ADDONS\OFXOPENCV\SRC\OFXCVCONTOURFINDER.CPP|D:\PROGRAM FILES\OPENFRAMEWORKS\ADDONS\OFXOPENCV\SRC\OFXCVFLOATIMAGE.CPP|D:\PROGRAM FILES\OPENFRAMEWORKS\ADDONS\OFXOPENCV\SRC\OFXCVGRAYSCALEIMAGE.CPP|D:\PROGRAM FILES\OPENFRAMEWORKS\ADDONS\OFXOPENCV\SRC\OFXCVHAARFINDER.CPP|D:\PROGRAM FILES\OPENFRAMEWORKS\ADDONS\OFXOPENCV\SRC\OFXCVIMAGE.CPP|D:\PROGRAM FILES\OPENFRAMEWORKS\ADDONS\OFXOPENCV\SRC\OFXCVSHORTIMAGE.CPP|D:\PROGRAM FILES\OPENFRAMEWORKS\APPS\MYAPPS\LASERZZ\SRC\MAIN.CPP|D:\PROGRAM FILES\OPENFRAMEWORKS\APPS\MYAPPS\LASERZZ\SRC\OFAPP.CPP
D:\PROGRAM FILES\OPENFRAMEWORKS\APPS\MYAPPS\LASERZZ\OBJ\DEBUG\OFAPP.OBJ
D:\PROGRAM FILES\OPENFRAMEWORKS\APPS\MYAPPS\LASERZZ\OBJ\DEBUG\OFXCVIMAGE.OBJ
D:\PROGRAM FILES\OPENFRAMEWORKS\APPS\MYAPPS\LASERZZ\OBJ\DEBUG\MAIN.OBJ
D:\PROGRAM FILES\OPENFRAMEWORKS\APPS\MYAPPS\LASERZZ\OBJ\DEBUG\OFXCVGRAYSCALEIMAGE.OBJ
D:\PROGRAM FILES\OPENFRAMEWORKS\APPS\MYAPPS\LASERZZ\OBJ\DEBUG\OFXCVCONTOURFINDER.OBJ
D:\PROGRAM FILES\OPENFRAMEWORKS\APPS\MYAPPS\LASERZZ\OBJ\DEBUG\OFXCVHAARFINDER.OBJ
D:\PROGRAM FILES\OPENFRAMEWORKS\APPS\MYAPPS\LASERZZ\OBJ\DEBUG\OFXCVCOLORIMAGE.OBJ
D:\PROGRAM FILES\OPENFRAMEWORKS\APPS\MYAPPS\LASERZZ\OBJ\DEBUG\OFXCVFLOATIMAGE.OBJ
D:\PROGRAM FILES\OPENFRAMEWORKS\APPS\MYAPPS\LASERZZ\OBJ\DEBUG\OFXCVSHORTIMAGE.OBJ
^D:\PROGRAM FILES\OPENFRAMEWORKS\ADDONS\OFXOPENCV\SRC\OFXCVCOLORIMAGE.CPP
D:\PROGRAM FILES\OPENFRAMEWORKS\APPS\MYAPPS\LASERZZ\OBJ\DEBUG\VC140.PDB
^D:\PROGRAM FILES\OPENFRAMEWORKS\ADDONS\OFXOPENCV\SRC\OFXCVCONTOURFINDER.CPP
D:\PROGRAM FILES\OPENFRAMEWORKS\APPS\MYAPPS\LASERZZ\OBJ\DEBUG\VC140.PDB
^D:\PROGRAM FILES\OPENFRAMEWORKS\ADDONS\OFXOPENCV\SRC\OFXCVFLOATIMAGE.CPP
D:\PROGRAM FILES\OPENFRAMEWORKS\APPS\MYAPPS\LASERZZ\OBJ\DEBUG\VC140.PDB
^D:\PROGRAM FILES\OPENFRAMEWORKS\ADDONS\OFXOPENCV\SRC\OFXCVGRAYSCALEIMAGE.CPP
D:\PROGRAM FILES\OPENFRAMEWORKS\APPS\MYAPPS\LASERZZ\OBJ\DEBUG\VC140.PDB
^D:\PROGRAM FILES\OPENFRAMEWORKS\ADDONS\OFXOPENCV\SRC\OFXCVHAARFINDER.CPP
D:\PROGRAM FILES\OPENFRAMEWORKS\APPS\MYAPPS\LASERZZ\OBJ\DEBUG\VC140.PDB
^D:\PROGRAM FILES\OPENFRAMEWORKS\ADDONS\OFXOPENCV\SRC\OFXCVIMAGE.CPP
D:\PROGRAM FILES\OPENFRAMEWORKS\APPS\MYAPPS\LASERZZ\OBJ\DEBUG\VC140.PDB
^D:\PROGRAM FILES\OPENFRAMEWORKS\ADDONS\OFXOPENCV\SRC\OFXCVSHORTIMAGE.CPP
D:\PROGRAM FILES\OPENFRAMEWORKS\APPS\MYAPPS\LASERZZ\OBJ\DEBUG\VC140.PDB
^D:\PROGRAM FILES\OPENFRAMEWORKS\APPS\MYAPPS\LASERZZ\SRC\MAIN.CPP|D:\PROGRAM FILES\OPENFRAMEWORKS\APPS\MYAPPS\LASERZZ\SRC\OFAPP.CPP
D:\PROGRAM FILES\OPENFRAMEWORKS\APPS\MYAPPS\LASERZZ\OBJ\DEBUG\OFAPP.OBJ
D:\PROGRAM FILES\OPENFRAMEWORKS\APPS\MYAPPS\LASERZZ\OBJ\DEBUG\MAIN.OBJ
^D:\PROGRAM FILES\OPENFRAMEWORKS\APPS\MYAPPS\LASERZZ\SRC\MAIN.CPP
D:\PROGRAM FILES\OPENFRAMEWORKS\APPS\MYAPPS\LASERZZ\OBJ\DEBUG\VC140.PDB
^D:\PROGRAM FILES\OPENFRAMEWORKS\APPS\MYAPPS\LASERZZ\SRC\OFAPP.CPP
D:\PROGRAM FILES\OPENFRAMEWORKS\APPS\MYAPPS\LASERZZ\OBJ\DEBUG\VC140.PDB
D:\PROGRAM FILES\OPENFRAMEWORKS\APPS\MYAPPS\LASERZZ\OBJ\DEBUG\OFAPP.OBJ
