^D:\PROGRAM FILES\OPENFRAMEWORKS\APPS\MYAPPS\LASERZZ\OBJ\DEBUG\ICON.RES|D:\PROGRAM FILES\OPENFRAMEWORKS\APPS\MYAPPS\LASERZZ\OBJ\DEBUG\MAIN.OBJ|D:\PROGRAM FILES\OPENFRAMEWORKS\APPS\MYAPPS\LASERZZ\OBJ\DEBUG\OFAPP.OBJ|D:\PROGRAM FILES\OPENFRAMEWORKS\APPS\MYAPPS\LASERZZ\OBJ\DEBUG\OFXCVCOLORIMAGE.OBJ|D:\PROGRAM FILES\OPENFRAMEWORKS\APPS\MYAPPS\LASERZZ\OBJ\DEBUG\OFXCVCONTOURFINDER.OBJ|D:\PROGRAM FILES\OPENFRAMEWORKS\APPS\MYAPPS\LASERZZ\OBJ\DEBUG\OFXCVFLOATIMAGE.OBJ|D:\PROGRAM FILES\OPENFRAMEWORKS\APPS\MYAPPS\LASERZZ\OBJ\DEBUG\OFXCVGRAYSCALEIMAGE.OBJ|D:\PROGRAM FILES\OPENFRAMEWORKS\APPS\MYAPPS\LASERZZ\OBJ\DEBUG\OFXCVHAARFINDER.OBJ|D:\PROGRAM FILES\OPENFRAMEWORKS\APPS\MYAPPS\LASERZZ\OBJ\DEBUG\OFXCVIMAGE.OBJ|D:\PROGRAM FILES\OPENFRAMEWORKS\APPS\MYAPPS\LASERZZ\OBJ\DEBUG\OFXCVSHORTIMAGE.OBJ|D:\PROGRAM FILES\OPENFRAMEWORKS\LIBS\OPENFRAMEWORKSCOMPILED\LIB\VS\WIN32\OPENFRAMEWORKSLIB_DEBUG.LIB
D:\PROGRAM FILES\OPENFRAMEWORKS\APPS\MYAPPS\LASERZZ\BIN\LASERZZ_DEBUG.ILK
D:\PROGRAM FILES\OPENFRAMEWORKS\APPS\MYAPPS\LASERZZ\BIN\LASERZZ_DEBUG.EXE
D:\PROGRAM FILES\OPENFRAMEWORKS\APPS\MYAPPS\LASERZZ\BIN\LASERZZ_DEBUG.PDB
